{
     "meta": {
               "limit": 20,
               "next": "/tapi/v2/translation/?limit=20&offset=20",
               "offset": 0,
               "previous": null,
               "total_count": 45
          },
     "objects": [
          {
               "price": 5,
               "status": "ready",
               "text": "This is a test task ",
               "uid": "a281dab6e1"
          },
          {
               "price": 4,
               "status": "ready",
               "text":"In the era of Siri",
               "target_language":"pt",
               "source_language": "en",
               "uid": "29de9551d9"
          }
     ]
}